[gd_scene load_steps=6 format=2]

[ext_resource path="res://Assets/Tilesets/Town.tres" type="TileSet" id=1]
[ext_resource path="res://Assets/Sprites/Player.tscn" type="PackedScene" id=2]
[ext_resource path="res://Assets/Scripts/PlayerMovement.gd" type="Script" id=3]
[ext_resource path="res://Assets/Scripts/Tilemap_random_orient.gd" type="Script" id=4]
[ext_resource path="res://Assets/Tilesets/Collision.tres" type="TileSet" id=5]

[node name="Node2D" type="Node2D"]
script = ExtResource( 3 )

[node name="Map" type="Node2D" parent="."]

[node name="BGMap" type="TileMap" parent="Map"]
tile_set = ExtResource( 1 )
format = 1
tile_data = PoolIntArray( -458756, 0, 0, -458755, 0, 0, -458754, 0, 0, -458753, 0, 0, -524288, 0, 0, -524287, 0, 0, -524286, 0, 0, -524285, 0, 0, -524284, 0, 0, -524283, 0, 0, -524282, 0, 0, -524281, 0, 0, -524280, 0, 0, -524279, 0, 0, -524278, 0, 0, -524277, 0, 0, -524276, 0, 0, -524275, 0, 0, -524274, 0, 0, -524273, 0, 0, -524272, 0, 0, -524271, 0, 0, -524270, 0, 0, -524269, 0, 0, -524268, 0, 0, -524267, 0, 0, -524266, 0, 0, -524265, 0, 0, -524264, 0, 0, -524263, 0, 0, -524262, 0, 0, -524261, 0, 0, -393220, 0, 0, -393219, 0, 0, -393218, 0, 0, -393217, 0, 0, -458752, 0, 0, -458751, 0, 0, -458750, 0, 0, -458749, 0, 0, -458748, 0, 0, -458747, 0, 0, -458746, 0, 0, -458745, 0, 0, -458744, 0, 0, -458743, 0, 0, -458742, 0, 0, -458741, 0, 0, -458740, 0, 0, -458739, 0, 0, -458738, 0, 0, -458737, 0, 0, -458736, 0, 0, -458735, 0, 0, -458734, 0, 0, -458733, 0, 0, -458732, 0, 0, -458731, 0, 0, -458730, 0, 0, -458729, 0, 0, -458728, 0, 0, -458727, 0, 0, -458726, 0, 0, -458725, 0, 0, -327684, 0, 0, -327683, 0, 0, -327682, 0, 0, -327681, 0, 0, -393216, 0, 0, -393215, 0, 0, -393214, 0, 0, -393213, 0, 0, -393212, 0, 0, -393211, 0, 0, -393210, 0, 0, -393209, 0, 0, -393208, 0, 0, -393207, 0, 0, -393206, 0, 0, -393205, 0, 0, -393204, 0, 0, -393203, 0, 0, -393202, 0, 0, -393201, 0, 0, -393200, 0, 0, -393199, 0, 0, -393198, 0, 0, -393197, 0, 0, -393196, 0, 0, -393195, 0, 0, -393194, 0, 0, -393193, 0, 0, -393192, 0, 0, -393191, 0, 0, -393190, 0, 0, -393189, 0, 0, -262148, 0, 0, -262147, 0, 0, -262146, 0, 0, -262145, 0, 0, -327680, 0, 0, -327679, 0, 0, -327678, 0, 0, -327677, 0, 0, -327676, 0, 0, -327675, 0, 0, -327674, 0, 0, -327673, 0, 0, -327672, 0, 0, -327671, 0, 0, -327670, 0, 0, -327669, 0, 0, -327668, 0, 0, -327667, 0, 0, -327666, 0, 0, -327665, 0, 0, -327664, 0, 0, -327663, 0, 0, -327662, 0, 0, -327661, 0, 0, -327660, 0, 0, -327659, 0, 0, -327658, 0, 0, -327657, 0, 0, -327656, 0, 0, -327655, 0, 0, -327654, 0, 0, -327653, 0, 0, -196612, 0, 0, -196611, 0, 0, -196610, 0, 0, -196609, 0, 0, -262144, 0, 0, -262143, 0, 0, -262142, 0, 0, -262141, 0, 0, -262140, 0, 0, -262139, 0, 0, -262138, 0, 0, -262137, 0, 0, -262136, 0, 0, -262135, 0, 0, -262134, 0, 0, -262133, 0, 0, -262132, 0, 0, -262131, 0, 0, -262130, 0, 0, -262129, 0, 0, -262128, 0, 0, -262127, 0, 0, -262126, 0, 0, -262125, 0, 0, -262124, 0, 0, -262123, 0, 0, -262122, 0, 0, -262121, 0, 0, -262120, 0, 0, -262119, 0, 0, -262118, 0, 0, -262117, 0, 0, -131076, 0, 0, -131075, 0, 0, -131074, 0, 0, -131073, 0, 0, -196608, 0, 0, -196607, 0, 0, -196606, 0, 0, -196605, 0, 0, -196604, 0, 0, -196603, 0, 0, -196602, 0, 0, -196601, 0, 0, -196600, 0, 0, -196599, 0, 0, -196598, 0, 0, -196597, 0, 0, -196596, 0, 0, -196595, 0, 0, -196594, 0, 0, -196593, 0, 0, -196592, 0, 0, -196591, 0, 0, -196590, 0, 0, -196589, 0, 0, -196588, 0, 0, -196587, 0, 0, -196586, 0, 0, -196585, 0, 0, -196584, 0, 0, -196583, 0, 0, -196582, 0, 0, -196581, 0, 0, -65540, 0, 0, -65539, 0, 0, -65538, 0, 0, -65537, 0, 0, -131072, 0, 0, -131071, 0, 0, -131070, 0, 0, -131069, 0, 0, -131068, 0, 0, -131067, 0, 0, -131066, 0, 0, -131065, 0, 0, -131064, 0, 0, -131063, 0, 0, -131062, 0, 0, -131061, 0, 0, -131060, 0, 0, -131059, 0, 0, -131058, 0, 0, -131057, 0, 0, -131056, 0, 0, -131055, 0, 0, -131054, 0, 0, -131053, 0, 0, -131052, 0, 0, -131051, 0, 0, -131050, 0, 0, -131049, 0, 0, -131048, 0, 0, -131047, 0, 0, -131046, 0, 0, -131045, 0, 0, -4, 0, 0, -3, 0, 0, -2, 0, 0, -1, 0, 0, -65536, 0, 0, -65535, 0, 0, -65534, 0, 0, -65533, 0, 0, -65532, 0, 0, -65531, 0, 0, -65530, 0, 0, -65529, 0, 0, -65528, 0, 0, -65527, 0, 0, -65526, 0, 0, -65525, 0, 0, -65524, 0, 0, -65523, 0, 0, -65522, 0, 0, -65521, 0, 0, -65520, 0, 0, -65519, 0, 0, -65518, 0, 0, -65517, 0, 0, -65516, 0, 0, -65515, 0, 0, -65514, 0, 0, -65513, 0, 0, -65512, 0, 0, -65511, 0, 0, -65510, 0, 0, -65509, 0, 0, 65532, 0, 0, 65533, 0, 0, 65534, 0, 0, 65535, 0, 0, 0, 0, 0, 1, 0, 0, 2, 0, 0, 3, 0, 0, 4, 0, 0, 5, 0, 0, 6, 0, 0, 7, 0, 0, 8, 0, 0, 9, 0, 0, 10, 0, 0, 11, 0, 0, 12, 0, 0, 13, 0, 0, 14, 0, 0, 15, 0, 0, 16, 0, 0, 17, 0, 0, 18, 0, 0, 19, 0, 0, 20, 0, 0, 21, 0, 0, 22, 0, 0, 23, 0, 0, 24, 0, 0, 25, 0, 0, 26, 0, 0, 27, 0, 0, 131068, 0, 0, 131069, 0, 0, 131070, 0, 0, 131071, 0, 0, 65536, 0, 0, 65537, 0, 0, 65538, 0, 0, 65539, 0, 0, 65540, 0, 0, 65541, 0, 0, 65542, 0, 0, 65543, 0, 0, 65544, 0, 0, 65545, 0, 0, 65546, 0, 0, 65547, 0, 0, 65548, 0, 0, 65549, 0, 0, 65550, 0, 0, 65551, 0, 0, 65552, 0, 0, 65553, 0, 0, 65554, 0, 0, 65555, 0, 0, 65556, 0, 0, 65557, 0, 0, 65558, 0, 0, 65559, 0, 0, 65560, 0, 0, 65561, 0, 0, 65562, 0, 0, 65563, 0, 0, 196604, 0, 0, 196605, 0, 0, 196606, 0, 0, 196607, 0, 0, 131072, 0, 0, 131073, 0, 0, 131074, 0, 0, 131075, 0, 0, 131076, 0, 0, 131077, 0, 0, 131078, 0, 0, 131079, 0, 0, 131080, 0, 0, 131081, 0, 0, 131082, 0, 0, 131083, 0, 0, 131084, 0, 0, 131085, 0, 0, 131086, 0, 0, 131087, 0, 0, 131088, 0, 0, 131089, 0, 0, 131090, 0, 0, 131091, 0, 0, 131092, 0, 0, 131093, 0, 0, 131094, 0, 0, 131095, 0, 0, 131096, 0, 0, 131097, 0, 0, 131098, 0, 0, 131099, 0, 0, 262140, 0, 0, 262141, 0, 0, 262142, 0, 0, 262143, 0, 0, 196608, 0, 0, 196609, 0, 0, 196610, 0, 0, 196611, 0, 0, 196612, 0, 0, 196613, 0, 0, 196614, 0, 0, 196615, 0, 0, 196616, 0, 0, 196617, 0, 0, 196618, 0, 0, 196619, 0, 0, 196620, 0, 0, 196621, 0, 0, 196622, 0, 0, 196623, 0, 0, 196624, 0, 0, 196625, 0, 0, 196626, 0, 0, 196627, 0, 0, 196628, 0, 0, 196629, 0, 0, 196630, 0, 0, 196631, 0, 0, 196632, 0, 0, 196633, 0, 0, 196634, 0, 0, 196635, 0, 0, 327676, 0, 0, 327677, 0, 0, 327678, 0, 0, 327679, 0, 0, 262144, 0, 0, 262145, 0, 0, 262146, 0, 0, 262147, 0, 0, 262148, 0, 0, 262149, 0, 0, 262150, 0, 0, 262151, 0, 0, 262152, 0, 0, 262153, 0, 0, 262154, 0, 0, 262155, 0, 0, 262156, 0, 0, 262157, 0, 0, 262158, 0, 0, 262159, 0, 0, 262160, 0, 0, 262161, 0, 0, 262162, 0, 0, 262163, 0, 0, 262164, 0, 0, 262165, 0, 0, 262166, 0, 0, 262167, 0, 0, 262168, 0, 0, 262169, 0, 0, 262170, 0, 0, 262171, 0, 0, 393212, 0, 0, 393213, 0, 0, 393214, 0, 0, 393215, 0, 0, 327680, 0, 0, 327681, 0, 0, 327682, 0, 0, 327683, 0, 0, 327684, 0, 0, 327685, 0, 0, 327686, 0, 0, 327687, 0, 0, 327688, 0, 0, 327689, 0, 0, 327690, 0, 0, 327691, 0, 0, 327692, 0, 0, 327693, 0, 0, 327694, 0, 0, 327695, 0, 0, 327696, 0, 0, 327697, 0, 0, 327698, 0, 0, 327699, 0, 0, 327700, 0, 0, 327701, 0, 0, 327702, 0, 0, 327703, 0, 0, 327704, 0, 0, 327705, 0, 0, 327706, 0, 0, 327707, 0, 0, 458748, 0, 0, 458749, 0, 0, 458750, 0, 0, 458751, 0, 0, 393216, 0, 0, 393217, 0, 0, 393218, 0, 0, 393219, 0, 0, 393220, 0, 0, 393221, 0, 0, 393222, 0, 0, 393223, 0, 0, 393224, 0, 0, 393225, 0, 0, 393226, 0, 0, 393227, 0, 0, 393228, 0, 0, 393229, 0, 0, 393230, 0, 0, 393231, 0, 0, 393232, 0, 0, 393233, 0, 0, 393234, 0, 0, 393235, 0, 0, 393236, 0, 0, 393237, 0, 0, 393238, 0, 0, 393239, 0, 0, 393240, 0, 0, 393241, 0, 0, 393242, 0, 0, 393243, 0, 0, 524284, 0, 0, 524285, 0, 0, 524286, 0, 0, 524287, 0, 0, 458752, 0, 0, 458753, 0, 0, 458754, 0, 0, 458755, 0, 0, 458756, 0, 0, 458757, 0, 0, 458758, 0, 0, 458759, 0, 0, 458760, 0, 0, 458761, 0, 0, 458762, 0, 0, 458763, 0, 0, 458764, 0, 0, 458765, 0, 0, 458766, 0, 0, 458767, 0, 0, 458768, 0, 0, 458769, 0, 0, 458770, 0, 0, 458771, 0, 0, 458772, 0, 0, 458773, 0, 0, 458774, 0, 0, 458775, 0, 0, 458776, 0, 0, 458777, 0, 0, 458778, 0, 0, 458779, 0, 0, 589820, 0, 0, 589821, 0, 0, 589822, 0, 0, 589823, 0, 0, 524288, 0, 0, 524289, 0, 0, 524290, 0, 0, 524291, 0, 0, 524292, 0, 0, 524293, 0, 0, 524294, 0, 0, 524295, 0, 0, 524296, 0, 0, 524297, 0, 0, 524298, 0, 0, 524299, 0, 0, 524300, 0, 0, 524301, 0, 0, 524302, 0, 0, 524303, 0, 0, 524304, 0, 0, 524305, 0, 0, 524306, 0, 0, 524307, 0, 0, 524308, 0, 0, 524309, 0, 0, 524310, 0, 0, 524311, 0, 0, 524312, 0, 0, 524313, 0, 0, 524314, 0, 0, 524315, 0, 0, 655356, 0, 0, 655357, 0, 0, 655358, 0, 0, 655359, 0, 0, 589824, 0, 0, 589825, 0, 0, 589826, 0, 0, 589827, 0, 0, 589828, 0, 0, 589829, 0, 0, 589830, 0, 0, 589831, 0, 0, 589832, 0, 0, 589833, 0, 0, 589834, 0, 0, 589835, 0, 0, 589836, 0, 0, 589837, 0, 0, 589838, 0, 0, 589839, 0, 0, 589840, 0, 0, 589841, 0, 0, 589842, 0, 0, 589843, 0, 0, 589844, 0, 0, 589845, 0, 0, 589846, 0, 0, 589847, 0, 0, 589848, 0, 0, 589849, 0, 0, 589850, 0, 0, 589851, 0, 0, 720892, 0, 0, 720893, 0, 0, 720894, 0, 0, 720895, 0, 0, 655360, 0, 0, 655361, 0, 0, 655362, 0, 0, 655363, 0, 0, 655364, 0, 0, 655365, 0, 0, 655366, 0, 0, 655367, 0, 0, 655368, 0, 0, 655369, 0, 0, 655370, 0, 0, 655371, 0, 0, 655372, 0, 0, 655373, 0, 0, 655374, 0, 0, 655375, 0, 0, 655376, 0, 0, 655377, 0, 0, 655378, 0, 0, 655379, 0, 0, 655380, 0, 0, 655381, 0, 0, 655382, 0, 0, 655383, 0, 0, 655384, 0, 0, 655385, 0, 0, 655386, 0, 0, 655387, 0, 0, 786428, 0, 0, 786429, 0, 0, 786430, 0, 0, 786431, 0, 0, 720896, 0, 0, 720897, 0, 0, 720898, 0, 0, 720899, 0, 0, 720900, 0, 0, 720901, 0, 0, 720902, 0, 0, 720903, 0, 0, 720904, 0, 0, 720905, 0, 0, 720906, 0, 0, 720907, 0, 0, 720908, 0, 0, 720909, 0, 0, 720910, 0, 0, 720911, 0, 0, 720912, 0, 0, 720913, 0, 0, 720914, 0, 0, 720915, 0, 0, 720916, 0, 0, 720917, 0, 0, 720918, 0, 0, 720919, 0, 0, 720920, 0, 0, 720921, 0, 0, 720922, 0, 0, 720923, 0, 0 )
script = ExtResource( 4 )

[node name="FGMap" type="TileMap" parent="Map"]
z_index = 1
tile_set = ExtResource( 1 )
format = 1
tile_data = PoolIntArray( -458756, 2, 0, -458755, 2, 0, -458754, 2, 0, -458753, 2, 0, -524288, 2, 0, -524287, 2, 0, -524286, 2, 0, -524285, 2, 0, -524284, 2, 0, -524283, 2, 0, -524282, 2, 0, -524281, 2, 0, -524280, 2, 0, -524279, 2, 0, -524278, 2, 0, -524277, 2, 0, -524276, 2, 0, -524275, 2, 0, -524274, 2, 0, -524273, 2, 0, -524272, 2, 0, -524271, 2, 0, -524270, 2, 0, -524269, 2, 0, -524268, 2, 0, -524267, 2, 0, -524266, 2, 0, -524265, 2, 0, -524264, 2, 0, -524263, 2, 0, -524262, 2, 0, -524261, 2, 0, -393220, 2, 0, -458725, 2, 0, -327684, 2, 0, -327682, 10, 0, -327681, 11, 0, -393216, 11, 0, -393215, 11, 0, -393214, 11, 0, -393213, 11, 0, -393212, 11, 0, -393211, 536870922, 0, -393209, 10, 0, -393208, 11, 0, -393207, 11, 0, -393206, 11, 0, -393205, 11, 0, -393204, 536870922, 0, -393199, 10, 0, -393198, 11, 0, -393197, 11, 0, -393196, 11, 0, -393195, 11, 0, -393194, 11, 0, -393193, 11, 0, -393192, 11, 0, -393191, 536870922, 0, -393189, 2, 0, -262148, 2, 0, -262146, 9, 0, -262145, 3, 0, -327680, 3, 0, -327679, 3, 0, -327678, 3, 0, -327677, 3, 0, -327676, 3, 0, -327675, 536870921, 0, -327673, 9, 0, -327672, 3, 0, -327671, 3, 0, -327670, 3, 0, -327669, 3, 0, -327668, 536870921, 0, -327663, 9, 0, -327662, 3, 0, -327661, 3, 0, -327660, 3, 0, -327659, 3, 0, -327658, 3, 0, -327657, 3, 0, -327656, 3, 0, -327655, 536870921, 0, -327653, 2, 0, -196612, 2, 0, -196610, 9, 0, -196609, 3, 0, -262144, 3, 0, -262143, 3, 0, -262142, 3, 0, -262141, 3, 0, -262140, 3, 0, -262139, 536870921, 0, -262137, 9, 0, -262136, 3, 0, -262135, 3, 0, -262134, 3, 0, -262133, 3, 0, -262132, 536870921, 0, -262127, 9, 0, -262126, 3, 0, -262125, 3, 0, -262124, 3, 0, -262123, 3, 0, -262122, 3, 0, -262121, 3, 0, -262120, 3, 0, -262119, 536870921, 0, -262117, 2, 0, -131076, 2, 0, -131074, 9, 0, -131073, 3, 0, -196608, 3, 0, -196607, 3, 0, -196606, 3, 0, -196605, 3, 0, -196604, 3, 0, -196603, 536870921, 0, -196601, 9, 0, -196600, 3, 0, -196599, 3, 0, -196598, 3, 0, -196597, 3, 0, -196596, 536870921, 0, -196591, 9, 0, -196590, 3, 0, -196589, 3, 0, -196588, 3, 0, -196587, 3, 0, -196586, 3, 0, -196585, 3, 0, -196584, 3, 0, -196583, 536870921, 0, -196581, 2, 0, -65540, 2, 0, -65538, 7, 0, -65537, 8, 0, -131072, 8, 0, -131071, 8, 0, -131070, 8, 0, -131069, 8, 0, -131068, 8, 0, -131067, 536870919, 0, -131065, 7, 0, -131064, 8, 0, -131063, 8, 0, -131062, 8, 0, -131061, 8, 0, -131060, 536870919, 0, -131055, 7, 0, -131054, 8, 0, -131053, 8, 0, -131052, 8, 0, -131051, 8, 0, -131050, 8, 0, -131049, 8, 0, -131048, 8, 0, -131047, 536870919, 0, -131045, 2, 0, -4, 2, 0, -2, 4, 0, -1, 536870917, 0, -65536, 536870917, 0, -65535, 536870917, 0, -65534, 6, 0, -65533, 536870917, 0, -65532, 536870917, 0, -65531, 536870916, 0, -65529, 4, 0, -65528, 536870917, 0, -65527, 6, 0, -65526, 536870917, 0, -65525, 536870917, 0, -65524, 536870916, 0, -65519, 4, 0, -65518, 536870917, 0, -65517, 5, 0, -65516, 6, 0, -65515, 5, 0, -65514, 5, 0, -65513, 5, 0, -65512, 536870917, 0, -65511, 536870916, 0, -65509, 2, 0, 65532, 2, 0, 27, 2, 0, 131068, 2, 0, 196604, 2, 0, 131099, 2, 0, 262140, 2, 0, 196635, 2, 0, 327676, 2, 0, 262159, 10, 0, 262160, 11, 0, 262161, 11, 0, 262162, 11, 0, 262163, 11, 0, 262164, 11, 0, 262165, 11, 0, 262166, 11, 0, 262167, 11, 0, 262168, 11, 0, 262169, 536870922, 0, 262171, 2, 0, 393212, 2, 0, 327695, 9, 0, 327696, 3, 0, 327697, 3, 0, 327698, 3, 0, 327699, 3, 0, 327700, 3, 0, 327701, 3, 0, 327702, 3, 0, 327703, 3, 0, 327704, 3, 0, 327705, 536870921, 0, 327707, 2, 0, 458748, 2, 0, 458750, 10, 0, 458751, 11, 0, 393216, 11, 0, 393217, 11, 0, 393218, 11, 0, 393219, 11, 0, 393220, 536870922, 0, 393231, 9, 0, 393232, 3, 0, 393233, 3, 0, 393234, 3, 0, 393235, 3, 0, 393236, 3, 0, 393237, 3, 0, 393238, 3, 0, 393239, 3, 0, 393240, 3, 0, 393241, 536870921, 0, 524284, 2, 0, 524286, 9, 0, 524287, 3, 0, 458752, 3, 0, 458753, 3, 0, 458754, 3, 0, 458755, 3, 0, 458756, 536870921, 0, 458767, 9, 0, 458768, 3, 0, 458769, 3, 0, 458770, 3, 0, 458771, 3, 0, 458772, 3, 0, 458773, 3, 0, 458774, 3, 0, 458775, 3, 0, 458776, 3, 0, 458777, 536870921, 0, 458779, 2, 0, 589820, 2, 0, 589822, 7, 0, 589823, 8, 0, 524288, 8, 0, 524289, 8, 0, 524290, 8, 0, 524291, 8, 0, 524292, 536870919, 0, 524303, 7, 0, 524304, 8, 0, 524305, 8, 0, 524306, 8, 0, 524307, 8, 0, 524308, 8, 0, 524309, 8, 0, 524310, 8, 0, 524311, 8, 0, 524312, 8, 0, 524313, 536870919, 0, 524315, 2, 0, 655356, 2, 0, 655358, 4, 0, 655359, 536870917, 0, 589824, 536870917, 0, 589825, 536870917, 0, 589826, 6, 0, 589827, 536870917, 0, 589828, 536870916, 0, 589839, 4, 0, 589840, 536870917, 0, 589841, 5, 0, 589842, 6, 0, 589843, 5, 0, 589844, 5, 0, 589845, 5, 0, 589846, 5, 0, 589847, 5, 0, 589848, 536870917, 0, 589849, 536870916, 0, 589851, 2, 0, 720892, 2, 0, 655387, 2, 0, 786428, 2, 0, 786429, 2, 0, 786430, 2, 0, 786431, 2, 0, 720896, 2, 0, 720897, 2, 0, 720898, 2, 0, 720899, 2, 0, 720900, 2, 0, 720901, 2, 0, 720902, 2, 0, 720904, 2, 0, 720905, 2, 0, 720906, 2, 0, 720907, 2, 0, 720908, 2, 0, 720910, 2, 0, 720911, 2, 0, 720912, 2, 0, 720913, 2, 0, 720914, 2, 0, 720915, 2, 0, 720916, 2, 0, 720917, 2, 0, 720918, 2, 0, 720919, 2, 0, 720920, 2, 0, 720921, 2, 0, 720922, 2, 0, 720923, 2, 0 )

[node name="OverlayMap" type="TileMap" parent="Map"]
z_index = 3
tile_set = ExtResource( 1 )
format = 1
tile_data = PoolIntArray( -327682, 10, 0, -327681, 536870923, 0, -393216, 536870923, 0, -393215, 536870923, 0, -393214, 536870923, 0, -393213, 536870923, 0, -393212, 536870923, 0, -393211, 536870922, 0, -393209, 10, 0, -393208, 536870923, 0, -393207, 536870923, 0, -393206, 536870923, 0, -393205, 536870923, 0, -393204, 536870922, 0, -393199, 10, 0, -393198, 536870923, 0, -393197, 536870923, 0, -393196, 536870923, 0, -393195, 536870923, 0, -393194, 536870923, 0, -393193, 536870923, 0, -393192, 536870923, 0, -393191, 536870922, 0, -262146, 9, 0, -327675, 536870921, 0, -327673, 9, 0, -327668, 536870921, 0, -327663, 9, 0, -327655, 536870921, 0, -196610, 9, 0, -262139, 536870921, 0, -262137, 9, 0, -262132, 536870921, 0, -262127, 9, 0, -262119, 536870921, 0, -131074, 9, 0, -196603, 536870921, 0, -196601, 9, 0, -196596, 536870921, 0, -196591, 9, 0, -196583, 536870921, 0, -65538, 7, 0, -131067, 536870919, 0, -131065, 7, 0, -131060, 536870919, 0, -131055, 7, 0, -131047, 536870919, 0, -2, 4, 0, -65531, 536870916, 0, -65529, 4, 0, -65524, 536870916, 0, -65519, 4, 0, -65511, 536870916, 0, 262159, 10, 0, 262160, 536870923, 0, 262161, 536870923, 0, 262162, 536870923, 0, 262163, 536870923, 0, 262164, 536870923, 0, 262165, 536870923, 0, 262166, 536870923, 0, 262167, 536870923, 0, 262168, 536870923, 0, 262169, 536870922, 0, 327695, 9, 0, 327705, 536870921, 0, 458750, 10, 0, 458751, 536870923, 0, 393216, 536870923, 0, 393217, 536870923, 0, 393218, 536870923, 0, 393219, 536870923, 0, 393220, 536870922, 0, 393231, 9, 0, 393241, 536870921, 0, 524286, 9, 0, 458756, 536870921, 0, 458767, 9, 0, 458777, 536870921, 0, 589822, 7, 0, 524292, 536870919, 0, 524303, 7, 0, 524313, 536870919, 0, 655358, 4, 0, 589828, 536870916, 0, 589839, 4, 0, 589849, 536870916, 0 )

[node name="Player" parent="." instance=ExtResource( 2 )]
z_index = 1

[node name="CollisionMap" type="TileMap" parent="."]
visible = false
modulate = Color( 1, 1, 1, 0.415686 )
z_index = 2
tile_set = ExtResource( 5 )
format = 1
tile_data = PoolIntArray( -458756, 1, 0, -458755, 1, 0, -458754, 1, 0, -458753, 1, 0, -524288, 1, 0, -524287, 1, 0, -524286, 1, 0, -524285, 1, 0, -524284, 1, 0, -524283, 1, 0, -524282, 1, 0, -524281, 1, 0, -524280, 1, 0, -524279, 1, 0, -524278, 1, 0, -524277, 1, 0, -524276, 1, 0, -524275, 1, 0, -524274, 1, 0, -524273, 1, 0, -524272, 1, 0, -524271, 1, 0, -524270, 1, 0, -524269, 1, 0, -524268, 1, 0, -524267, 1, 0, -524266, 1, 0, -524265, 1, 0, -524264, 1, 0, -524263, 1, 0, -524262, 1, 0, -524261, 1, 0, -393220, 1, 0, -393219, 0, 0, -393218, 0, 0, -393217, 0, 0, -458752, 0, 0, -458751, 0, 0, -458750, 0, 0, -458749, 0, 0, -458748, 0, 0, -458747, 0, 0, -458746, 0, 0, -458745, 0, 0, -458744, 0, 0, -458743, 0, 0, -458742, 0, 0, -458741, 0, 0, -458740, 0, 0, -458739, 0, 0, -458738, 0, 0, -458737, 0, 0, -458736, 0, 0, -458735, 0, 0, -458734, 0, 0, -458733, 0, 0, -458732, 0, 0, -458731, 0, 0, -458730, 0, 0, -458729, 0, 0, -458728, 0, 0, -458727, 0, 0, -458726, 0, 0, -458725, 1, 0, -327684, 1, 0, -327683, 0, 0, -327682, 536870912, 0, -327681, 536870912, 0, -393216, 536870912, 0, -393215, 536870912, 0, -393214, 536870912, 0, -393213, 536870912, 0, -393212, 536870912, 0, -393211, 0, 0, -393210, 0, 0, -393209, 536870912, 0, -393208, 536870912, 0, -393207, 536870912, 0, -393206, 536870912, 0, -393205, 536870912, 0, -393204, 536870912, 0, -393203, 536870912, 0, -393202, 536870912, 0, -393201, 536870912, 0, -393200, 536870912, 0, -393199, 536870912, 0, -393198, 536870912, 0, -393197, 536870912, 0, -393196, 536870912, 0, -393195, 536870912, 0, -393194, 536870912, 0, -393193, 536870912, 0, -393192, 536870912, 0, -393191, 536870912, 0, -393190, 536870912, 0, -393189, 1, 0, -262148, 1, 0, -262147, 0, 0, -262146, 0, 0, -262145, 1, 0, -327680, 1, 0, -327679, 1, 0, -327678, 1, 0, -327677, 1, 0, -327676, 1, 0, -327675, 0, 0, -327674, 0, 0, -327673, 0, 0, -327672, 1, 0, -327671, 1, 0, -327670, 1, 0, -327669, 1, 0, -327668, 0, 0, -327667, 0, 0, -327666, 0, 0, -327665, 0, 0, -327664, 0, 0, -327663, 0, 0, -327662, 1, 0, -327661, 1, 0, -327660, 1, 0, -327659, 1, 0, -327658, 1, 0, -327657, 1, 0, -327656, 1, 0, -327655, 0, 0, -327654, 0, 0, -327653, 1, 0, -196612, 1, 0, -196611, 0, 0, -196610, 0, 0, -196609, 1, 0, -262144, 1, 0, -262143, 1, 0, -262142, 1, 0, -262141, 1, 0, -262140, 1, 0, -262139, 0, 0, -262138, 0, 0, -262137, 0, 0, -262136, 1, 0, -262135, 1, 0, -262134, 1, 0, -262133, 1, 0, -262132, 0, 0, -262131, 0, 0, -262130, 0, 0, -262129, 0, 0, -262128, 0, 0, -262127, 0, 0, -262126, 1, 0, -262125, 1, 0, -262124, 1, 0, -262123, 1, 0, -262122, 1, 0, -262121, 1, 0, -262120, 1, 0, -262119, 0, 0, -262118, 0, 0, -262117, 1, 0, -131076, 1, 0, -131075, 0, 0, -131074, 0, 0, -131073, 1, 0, -196608, 1, 0, -196607, 1, 0, -196606, 1, 0, -196605, 1, 0, -196604, 1, 0, -196603, 0, 0, -196602, 0, 0, -196601, 0, 0, -196600, 1, 0, -196599, 1, 0, -196598, 1, 0, -196597, 1, 0, -196596, 0, 0, -196595, 0, 0, -196594, 0, 0, -196593, 0, 0, -196592, 0, 0, -196591, 0, 0, -196590, 1, 0, -196589, 1, 0, -196588, 1, 0, -196587, 1, 0, -196586, 1, 0, -196585, 1, 0, -196584, 1, 0, -196583, 0, 0, -196582, 0, 0, -196581, 1, 0, -65540, 1, 0, -65539, 0, 0, -65538, 0, 0, -65537, 1, 0, -131072, 1, 0, -131071, 1, 0, -131070, 1, 0, -131069, 1, 0, -131068, 1, 0, -131067, 0, 0, -131066, 0, 0, -131065, 0, 0, -131064, 1, 0, -131063, 1, 0, -131062, 1, 0, -131061, 1, 0, -131060, 0, 0, -131059, 0, 0, -131058, 0, 0, -131057, 0, 0, -131056, 0, 0, -131055, 0, 0, -131054, 1, 0, -131053, 1, 0, -131052, 1, 0, -131051, 1, 0, -131050, 1, 0, -131049, 1, 0, -131048, 1, 0, -131047, 0, 0, -131046, 0, 0, -131045, 1, 0, -4, 1, 0, -3, 0, 0, -2, 0, 0, -1, 1, 0, -65536, 1, 0, -65535, 1, 0, -65534, 2, 0, -65533, 1, 0, -65532, 1, 0, -65531, 0, 0, -65530, 0, 0, -65529, 0, 0, -65528, 1, 0, -65527, 2, 0, -65526, 1, 0, -65525, 1, 0, -65524, 0, 0, -65523, 0, 0, -65522, 0, 0, -65521, 0, 0, -65520, 0, 0, -65519, 0, 0, -65518, 1, 0, -65517, 1, 0, -65516, 2, 0, -65515, 1, 0, -65514, 1, 0, -65513, 1, 0, -65512, 1, 0, -65511, 0, 0, -65510, 0, 0, -65509, 1, 0, 65532, 1, 0, 65533, 0, 0, 65534, 0, 0, 65535, 0, 0, 0, 0, 0, 1, 0, 0, 2, 0, 0, 3, 0, 0, 4, 0, 0, 5, 0, 0, 6, 0, 0, 7, 0, 0, 8, 0, 0, 9, 0, 0, 10, 0, 0, 11, 0, 0, 12, 0, 0, 13, 0, 0, 14, 0, 0, 15, 0, 0, 16, 0, 0, 17, 0, 0, 18, 0, 0, 19, 0, 0, 20, 0, 0, 21, 0, 0, 22, 0, 0, 23, 0, 0, 24, 0, 0, 25, 0, 0, 26, 0, 0, 27, 1, 0, 131068, 1, 0, 131069, 0, 0, 131070, 0, 0, 131071, 0, 0, 65536, 0, 0, 65537, 0, 0, 65538, 0, 0, 65539, 0, 0, 65540, 0, 0, 65541, 0, 0, 65542, 0, 0, 65543, 0, 0, 65544, 0, 0, 65545, 0, 0, 65546, 0, 0, 65547, 0, 0, 65548, 0, 0, 65549, 0, 0, 65550, 0, 0, 65551, 0, 0, 65552, 0, 0, 65553, 0, 0, 65554, 0, 0, 65555, 0, 0, 65556, 0, 0, 65557, 0, 0, 65558, 0, 0, 65559, 0, 0, 65560, 0, 0, 65561, 0, 0, 65562, 0, 0, 65563, 2, 0, 196604, 1, 0, 196605, 0, 0, 196606, 0, 0, 196607, 0, 0, 131072, 0, 0, 131073, 0, 0, 131074, 0, 0, 131075, 0, 0, 131076, 0, 0, 131077, 0, 0, 131078, 0, 0, 131079, 0, 0, 131080, 0, 0, 131081, 0, 0, 131082, 0, 0, 131083, 0, 0, 131084, 0, 0, 131085, 0, 0, 131086, 0, 0, 131087, 0, 0, 131088, 0, 0, 131089, 0, 0, 131090, 0, 0, 131091, 0, 0, 131092, 0, 0, 131093, 0, 0, 131094, 0, 0, 131095, 0, 0, 131096, 0, 0, 131097, 0, 0, 131098, 0, 0, 131099, 1, 0, 262140, 1, 0, 262141, 0, 0, 262142, 0, 0, 262143, 0, 0, 196608, 0, 0, 196609, 0, 0, 196610, 0, 0, 196611, 0, 0, 196612, 0, 0, 196613, 0, 0, 196614, 0, 0, 196615, 0, 0, 196616, 0, 0, 196617, 0, 0, 196618, 0, 0, 196619, 0, 0, 196620, 0, 0, 196621, 0, 0, 196622, 0, 0, 196623, 0, 0, 196624, 0, 0, 196625, 0, 0, 196626, 0, 0, 196627, 0, 0, 196628, 0, 0, 196629, 0, 0, 196630, 0, 0, 196631, 0, 0, 196632, 0, 0, 196633, 0, 0, 196634, 0, 0, 196635, 1, 0, 327676, 1, 0, 327677, 0, 0, 327678, 0, 0, 327679, 536870912, 0, 262144, 536870912, 0, 262145, 536870912, 0, 262146, 536870912, 0, 262147, 536870912, 0, 262148, 536870912, 0, 262149, 536870912, 0, 262150, 536870912, 0, 262151, 536870912, 0, 262152, 536870912, 0, 262153, 536870912, 0, 262154, 536870912, 0, 262155, 536870912, 0, 262156, 536870912, 0, 262157, 536870912, 0, 262158, 536870912, 0, 262159, 536870912, 0, 262160, 536870912, 0, 262161, 536870912, 0, 262162, 536870912, 0, 262163, 536870912, 0, 262164, 536870912, 0, 262165, 536870912, 0, 262166, 536870912, 0, 262167, 536870912, 0, 262168, 536870912, 0, 262169, 0, 0, 262170, 0, 0, 262171, 1, 0, 393212, 1, 0, 393213, 0, 0, 393214, 0, 0, 393215, 0, 0, 327680, 0, 0, 327681, 0, 0, 327682, 0, 0, 327683, 0, 0, 327684, 0, 0, 327685, 0, 0, 327686, 0, 0, 327687, 0, 0, 327688, 0, 0, 327689, 0, 0, 327690, 0, 0, 327691, 0, 0, 327692, 0, 0, 327693, 0, 0, 327694, 0, 0, 327695, 0, 0, 327696, 1, 0, 327697, 1, 0, 327698, 1, 0, 327699, 1, 0, 327700, 1, 0, 327701, 1, 0, 327702, 1, 0, 327703, 1, 0, 327704, 1, 0, 327705, 0, 0, 327706, 0, 0, 327707, 1, 0, 458748, 1, 0, 458749, 0, 0, 458750, 0, 0, 458751, 536870912, 0, 393216, 536870912, 0, 393217, 536870912, 0, 393218, 536870912, 0, 393219, 536870912, 0, 393220, 536870912, 0, 393221, 0, 0, 393222, 0, 0, 393223, 0, 0, 393224, 0, 0, 393225, 0, 0, 393226, 0, 0, 393227, 0, 0, 393228, 0, 0, 393229, 0, 0, 393230, 0, 0, 393231, 0, 0, 393232, 1, 0, 393233, 1, 0, 393234, 1, 0, 393235, 1, 0, 393236, 1, 0, 393237, 1, 0, 393238, 1, 0, 393239, 1, 0, 393240, 1, 0, 393241, 0, 0, 393242, 0, 0, 393243, 2, 0, 524284, 1, 0, 524285, 0, 0, 524286, 0, 0, 524287, 1, 0, 458752, 1, 0, 458753, 1, 0, 458754, 1, 0, 458755, 1, 0, 458756, 0, 0, 458757, 0, 0, 458758, 0, 0, 458759, 0, 0, 458760, 0, 0, 458761, 0, 0, 458762, 0, 0, 458763, 0, 0, 458764, 0, 0, 458765, 0, 0, 458766, 0, 0, 458767, 0, 0, 458768, 1, 0, 458769, 1, 0, 458770, 1, 0, 458771, 1, 0, 458772, 1, 0, 458773, 1, 0, 458774, 1, 0, 458775, 1, 0, 458776, 1, 0, 458777, 0, 0, 458778, 0, 0, 458779, 1, 0, 589820, 1, 0, 589821, 0, 0, 589822, 0, 0, 589823, 1, 0, 524288, 1, 0, 524289, 1, 0, 524290, 1, 0, 524291, 1, 0, 524292, 0, 0, 524293, 0, 0, 524294, 0, 0, 524295, 0, 0, 524296, 0, 0, 524297, 0, 0, 524298, 0, 0, 524299, 0, 0, 524300, 0, 0, 524301, 0, 0, 524302, 0, 0, 524303, 0, 0, 524304, 1, 0, 524305, 1, 0, 524306, 1, 0, 524307, 1, 0, 524308, 1, 0, 524309, 1, 0, 524310, 1, 0, 524311, 1, 0, 524312, 1, 0, 524313, 0, 0, 524314, 0, 0, 524315, 1, 0, 655356, 1, 0, 655357, 0, 0, 655358, 0, 0, 655359, 1, 0, 589824, 1, 0, 589825, 1, 0, 589826, 2, 0, 589827, 1, 0, 589828, 0, 0, 589829, 0, 0, 589830, 0, 0, 589831, 0, 0, 589832, 0, 0, 589833, 0, 0, 589834, 0, 0, 589835, 0, 0, 589836, 0, 0, 589837, 0, 0, 589838, 0, 0, 589839, 0, 0, 589840, 1, 0, 589841, 1, 0, 589842, 2, 0, 589843, 1, 0, 589844, 1, 0, 589845, 1, 0, 589846, 1, 0, 589847, 1, 0, 589848, 1, 0, 589849, 0, 0, 589850, 0, 0, 589851, 1, 0, 720892, 1, 0, 720893, 0, 0, 720894, 0, 0, 720895, 0, 0, 655360, 0, 0, 655361, 0, 0, 655362, 0, 0, 655363, 0, 0, 655364, 0, 0, 655365, 0, 0, 655366, 0, 0, 655367, 0, 0, 655368, 0, 0, 655369, 0, 0, 655370, 0, 0, 655371, 0, 0, 655372, 0, 0, 655373, 0, 0, 655374, 0, 0, 655375, 0, 0, 655376, 0, 0, 655377, 0, 0, 655378, 0, 0, 655379, 0, 0, 655380, 0, 0, 655381, 0, 0, 655382, 0, 0, 655383, 0, 0, 655384, 0, 0, 655385, 0, 0, 655386, 0, 0, 655387, 1, 0, 786428, 1, 0, 786429, 1, 0, 786430, 1, 0, 786431, 1, 0, 720896, 1, 0, 720897, 1, 0, 720898, 1, 0, 720899, 1, 0, 720900, 1, 0, 720901, 1, 0, 720902, 1, 0, 720903, 2, 0, 720904, 1, 0, 720905, 1, 0, 720906, 1, 0, 720907, 1, 0, 720908, 1, 0, 720909, 2, 0, 720910, 1, 0, 720911, 1, 0, 720912, 1, 0, 720913, 1, 0, 720914, 1, 0, 720915, 1, 0, 720916, 1, 0, 720917, 1, 0, 720918, 1, 0, 720919, 1, 0, 720920, 1, 0, 720921, 1, 0, 720922, 1, 0, 720923, 1, 0 )
